…
    ## file path:          /Users/matthewparker/Library/Caches/rnoaa/ghcnd/USS0023B17S.dly

    ## file last updated:  2019-05-30 10:04:33

    ## file min/max dates: 1999-09-01 / 2019-05-31

## ‘group\_by’ and counting

``` r
weather_df %>% 
  group_by(name, month)
```

    ## # A tibble: 1,095 x 7
    ## # Groups:   name, month [36]
    ##    name           id          date       month       prcp  tmax  tmin
    ##    <chr>          <chr>       <date>     <date>     <dbl> <dbl> <dbl>
    ##  1 CentralPark_NY USW00094728 2017-01-01 2017-01-01     0   8.9   4.4
    ##  2 CentralPark_NY USW00094728 2017-01-02 2017-01-01    53   5     2.8
    ##  3 CentralPark_NY USW00094728 2017-01-03 2017-01-01   147   6.1   3.9
    ##  4 CentralPark_NY USW00094728 2017-01-04 2017-01-01     0  11.1   1.1
    ##  5 CentralPark_NY USW00094728 2017-01-05 2017-01-01     0   1.1  -2.7
    ##  6 CentralPark_NY USW00094728 2017-01-06 2017-01-01    13   0.6  -3.8
    ##  7 CentralPark_NY USW00094728 2017-01-07 2017-01-01    81  -3.2  -6.6
    ##  8 CentralPark_NY USW00094728 2017-01-08 2017-01-01     0  -3.8  -8.8
    ##  9 CentralPark_NY USW00094728 2017-01-09 2017-01-01     0  -4.9  -9.9
    ## 10 CentralPark_NY USW00094728 2017-01-10 2017-01-01     0   7.8  -6  
    ## # … with 1,085 more rows
